%YAML 1.1
%TAG !u! tag:unity3d.com,2011:
--- !u!114 &11400000
MonoBehaviour:
  m_ObjectHideFlags: 0
  m_CorrespondingSourceObject: {fileID: 0}
  m_PrefabInstance: {fileID: 0}
  m_PrefabAsset: {fileID: 0}
  m_GameObject: {fileID: 0}
  m_Enabled: 1
  m_EditorHideFlags: 0
  m_Script: {fileID: 11500000, guid: a2a41f76dd1f5a644be1624a17d45242, type: 3}
  m_Name: LoopRoom
  m_EditorClassIdentifier: 
  id: 4
  nameRoom: LoopRoom
  newTagDoor: DoorBlocked
