%YAML 1.1
%TAG !u! tag:unity3d.com,2011:
--- !u!114 &11400000
MonoBehaviour:
  m_ObjectHideFlags: 0
  m_CorrespondingSourceObject: {fileID: 0}
  m_PrefabInstance: {fileID: 0}
  m_PrefabAsset: {fileID: 0}
  m_GameObject: {fileID: 0}
  m_Enabled: 1
  m_EditorHideFlags: 0
  m_Script: {fileID: 11500000, guid: c3d74fcaed28dca46aeda0680dda4598, type: 3}
  m_Name: Baal
  m_EditorClassIdentifier: 
  spiritName: Baal
  control: 1
  greedy: 0
  protectorBrujas: 0
  fertility: 0
  sage: 0
  violent: 1
  planetControl: 1
  obsessive: 1
