%YAML 1.1
%TAG !u! tag:unity3d.com,2011:
--- !u!1001 &5808056221773066292
PrefabInstance:
  m_ObjectHideFlags: 0
  serializedVersion: 2
  m_Modification:
    m_TransformParent: {fileID: 0}
    m_Modifications:
    - target: {fileID: -8679921383154817045, guid: 8bf5539530f530443933bfd2da5cbfe5,
        type: 3}
      propertyPath: m_RootOrder
      value: 0
      objectReference: {fileID: 0}
    - target: {fileID: -8679921383154817045, guid: 8bf5539530f530443933bfd2da5cbfe5,
        type: 3}
      propertyPath: m_LocalPosition.x
      value: -0
      objectReference: {fileID: 0}
    - target: {fileID: -8679921383154817045, guid: 8bf5539530f530443933bfd2da5cbfe5,
        type: 3}
      propertyPath: m_LocalPosition.y
      value: 1.134
      objectReference: {fileID: 0}
    - target: {fileID: -8679921383154817045, guid: 8bf5539530f530443933bfd2da5cbfe5,
        type: 3}
      propertyPath: m_LocalPosition.z
      value: 0
      objectReference: {fileID: 0}
    - target: {fileID: -8679921383154817045, guid: 8bf5539530f530443933bfd2da5cbfe5,
        type: 3}
      propertyPath: m_LocalRotation.w
      value: 1
      objectReference: {fileID: 0}
    - target: {fileID: -8679921383154817045, guid: 8bf5539530f530443933bfd2da5cbfe5,
        type: 3}
      propertyPath: m_LocalRotation.x
      value: 0
      objectReference: {fileID: 0}
    - target: {fileID: -8679921383154817045, guid: 8bf5539530f530443933bfd2da5cbfe5,
        type: 3}
      propertyPath: m_LocalRotation.y
      value: -0
      objectReference: {fileID: 0}
    - target: {fileID: -8679921383154817045, guid: 8bf5539530f530443933bfd2da5cbfe5,
        type: 3}
      propertyPath: m_LocalRotation.z
      value: -0
      objectReference: {fileID: 0}
    - target: {fileID: -8679921383154817045, guid: 8bf5539530f530443933bfd2da5cbfe5,
        type: 3}
      propertyPath: m_LocalEulerAnglesHint.x
      value: 0
      objectReference: {fileID: 0}
    - target: {fileID: -8679921383154817045, guid: 8bf5539530f530443933bfd2da5cbfe5,
        type: 3}
      propertyPath: m_LocalEulerAnglesHint.y
      value: 0
      objectReference: {fileID: 0}
    - target: {fileID: -8679921383154817045, guid: 8bf5539530f530443933bfd2da5cbfe5,
        type: 3}
      propertyPath: m_LocalEulerAnglesHint.z
      value: 0
      objectReference: {fileID: 0}
    - target: {fileID: 919132149155446097, guid: 8bf5539530f530443933bfd2da5cbfe5,
        type: 3}
      propertyPath: m_Name
      value: Key2
      objectReference: {fileID: 0}
    m_RemovedComponents: []
  m_SourcePrefab: {fileID: 100100000, guid: 8bf5539530f530443933bfd2da5cbfe5, type: 3}
