%YAML 1.1
%TAG !u! tag:unity3d.com,2011:
--- !u!114 &11400000
MonoBehaviour:
  m_ObjectHideFlags: 0
  m_CorrespondingSourceObject: {fileID: 0}
  m_PrefabInstance: {fileID: 0}
  m_PrefabAsset: {fileID: 0}
  m_GameObject: {fileID: 0}
  m_Enabled: 1
  m_EditorHideFlags: 0
  m_Script: {fileID: 11500000, guid: 0c2024a624edcef4c85985f4cc737444, type: 3}
  m_Name: Graphics List
  m_EditorClassIdentifier: 
  grafics:
  - {fileID: 11400000, guid: 3db025a4c10435e43a508cf174181374, type: 2}
  - {fileID: 11400000, guid: 7a06b58592a2d9c44bfbd76c85658f57, type: 2}
  - {fileID: 11400000, guid: 256ed9050bf8fe843b4f90cb8ad4a079, type: 2}
