%YAML 1.1
%TAG !u! tag:unity3d.com,2011:
--- !u!114 &11400000
MonoBehaviour:
  m_ObjectHideFlags: 0
  m_CorrespondingSourceObject: {fileID: 0}
  m_PrefabInstance: {fileID: 0}
  m_PrefabAsset: {fileID: 0}
  m_GameObject: {fileID: 0}
  m_Enabled: 1
  m_EditorHideFlags: 0
  m_Script: {fileID: 11500000, guid: ba74b10cf31e6194e8e8f388793bbbc3, type: 3}
  m_Name: RiddleMap
  m_EditorClassIdentifier: 
  name: Map
  answer: Map
  image: {fileID: 21300000, guid: 9f69417a7d0a8ec4fb5d5a6039cd3d9d, type: 3}
