%YAML 1.1
%TAG !u! tag:unity3d.com,2011:
--- !u!114 &11400000
MonoBehaviour:
  m_ObjectHideFlags: 0
  m_CorrespondingSourceObject: {fileID: 0}
  m_PrefabInstance: {fileID: 0}
  m_PrefabAsset: {fileID: 0}
  m_GameObject: {fileID: 0}
  m_Enabled: 1
  m_EditorHideFlags: 0
  m_Script: {fileID: 11500000, guid: fc751a80e1ecd8a418b6de36ad643e62, type: 3}
  m_Name: HandLens
  m_EditorClassIdentifier: 
  _nameItem: Lens
  _enable: 0
  image: {fileID: 21300000, guid: e12920a7f0ed06249a588747a9ebd941, type: 3}
